001_cornell_box:                                                        ok. mse = 23.1659
001_cornell_box_sm:                                                     ok. mse = 16.882
002_cornell_box_photometric:                                            ok. mse = 23.2128
002_cornell_box_photometric_sm:                                         ok. mse = 13.0594
004_test_shadow_offset_and:                                             ok. mse = 
005_tilt_correction:                                                    ok. mse = 
006_dof:                                                                ok. mse = 
007_normalBug:                                                          ok. mse = 15.7974
008_RenderElements:                                                     ok. mse = 
010_splines:                                                            ok. mse = 17.1489
011_normals_subdivisons:                                                ok. mse = 0.592973
014_hydra_mat_bump-height:                                              ok. mse = 0
015_hydra_mat_bump-normal:                                              ok. mse = 0
020_Texture-BMP:                                                        ok. mse = 9.94942
021_Texture-JPG:                                                        ok. mse = 14.5353
022_Texture-PNG:                                                        ok. mse = 12.8449
023_Texture-PNG-alpha:                                                  ok. mse = 14.2913
024_Texture-TGA:                                                        ok. mse = 13.2563
025_Texture-TGA-alpha:                                                  ok. mse = 2.58036
026_Texture-TIFF:                                                       ok. mse = 8.78452
027_Texture-TIFF-alpha:                                                 ok. mse = 6.01178
028_Big_texture_10K:                                                    ok. mse = 0.866032
029_Texture-PNG-16bit:                                                  FALSE! MSE = 5317.98
030_textures_proc:                                                      ok. mse = 0.577562
031_hydra_mat_Fresnel-IOR:                                              ok. mse = 15.2979
032_hydra_mat_Fresnel-off:                                              ok. mse = 5.24769
033_hydra_mat_Oren-Nayar:                                               ok. mse = 10.545
035_Envir-HDR:                                                          ok. mse = 9.56595
036_Envir-HDR_mult04:                                                   ok. mse = 1.87709
037_Envir-HDR_turn:                                                     ok. mse = 11.9493
038_Opacity:                                                            ok. mse = 9.99669
039_Alpha_as_gray:                                                      ok. mse = 9.40789
040_Instance_with_different_mat:                                        ok. mse = 15.8425
041_Instance_without_mat:                                               ok. mse = 3.24613
042_with_mat_and_without_mat:                                           ok. mse = 1.95099
043_cornell_normals:                                                    ok. mse = 11.8571
044_glossy_do_not_compress_normals:                                     ok. mse = 1.03619
045_flip_normals:                                                       ok. mse = 11.9922
047_normalmap_with_zero:                                                ok. mse = 1.38423
048_DOF_circle_boke:                                                    ok. mse = 16.7324
049_no_cast_shadow:                                                     ok. mse = 0.462767
050_HiPoly:                                                             ok. mse = 2.15942
051_MidPoly:                                                            ok. mse = 2.1655
054_overrideToGrayMat:                                                  ok. mse = 16.8835
055_4K_pixels:                                                          ok. mse = 19.5935
056_MultiMat_with_texture:                                              ok. mse = 7.15234
057_Tile_in_composite:                                                  ok. mse = 0.943215
058_Invert_height_normal:                                               ok. mse = 3.32293
059_Mask:                                                               ok. mse = 0.781384
060_Mix:                                                                ok. mse = 7.73379
061_Output:                                                             ok. mse = 0.9621
062_RGBMultiply:                                                        ok. mse = 0.384351
063_RGBTint:                                                            ok. mse = 0.798279
064_UVW:                                                                ok. mse = 4.31382
066_Extrusion:                                                          ok. mse = 14.56
067_BumpOnNotFlat:                                                      ok. mse = 3.54371
068_ProdMode:                                                           ok. mse = 1.57734
069_ColorCorrTile:                                                      ok. mse = 12.4277
070_ProcTexTile:                                                        ok. mse = 6.52427
071_Particles:                                                          ok. mse = 10.1938
072_multimatOnPrimitives:                                               ok. mse = 23.3054
073_ColorCorr_rotate:                                                   ok. mse = 0.85845
074_HeightMap_inverse:                                                  FALSE! MSE = 3081.08
075_SimpleMultiMatWithOpacity:                                          ok. mse = 0.666315
076_CropDeleteAlphaTexture:                                             ok. mse = 1.97082
077_ToneMapping:                                                        ok. mse = 0.816372
078_GlassWithBackEnvir:                                                 FALSE! MSE = 5603.3
079_Hydra_anisotropy:                                                   ok. mse = 3.86602
080_Hydra_anisotropy_envir:                                             ok. mse = 26.5289
081_Hydra_anisotropy_rotate_texture:                                    ok. mse = 3.7782
082_Hydra_anisotropy_rotate_texture_envir:                              ok. mse = 11.5467
083_Furnace_Reflect_Phong:                                              ok. mse = 28.9447
084_Furnace_Reflect_Phong_areaLights:                                   ok. mse = 4.74538
085_Furnace_Reflect_TorrSparr:                                          ok. mse = 11.7616
086_Furnace_Reflect_TorrSparr_areaLights:                               ok. mse = 14.027
087_Furnace_Reflect_Beckmann:                                           ok. mse = 3.56651
088_Furnace_Reflect_Beckmann_areaLights:                                ok. mse = 
089_Furnace_Reflect_GGX:                                                ok. mse = 5.3526
090_Furnace_Reflect_GGX_areaLights:                                     ok. mse = 8.48032
091_Furnace_Reflect_TRGGX:                                              ok. mse = 10.956
092_Furnace_Reflect_TRGGX_areaLights:                                   ok. mse = 
093_Furnace_Refract:                                                    ok. mse = 25.1364
094_Furnace_glass:                                                      ok. mse = 24.0095
095_Env_Reflect_Phong:                                                  ok. mse = 3.47184
096_Env_Reflect_TorrSparr:                                              ok. mse = 0.983156
097_Env_Reflect_Beckmann:                                               ok. mse = 17.421
098_Env_Reflect_GGX:                                                    ok. mse = 0.980075
099_Env_Reflect_TRGGX:                                                  ok. mse = 14.7826
101_Hydra_mat_multiply:                                                 ok. mse = 27.1979
102_hydra_mat_basic:                                                    ok. mse = 10.6604
103_hydra_mat_blend:                                                    ok. mse = 12.6334
104_Hydra_mat_Multiply_Textures:                                        ok. mse = 21.095
105_Hydra_mat_Multiply_Textures_Tint:                                   ok. mse = 10.9298
106_Hydra_mat_Translucence:                                             ok. mse = 17.8789
107_Hydra_mat_Selfillum:                                                ok. mse = 19.9455
109_Hydra_mat_Refraction-shell-glossy_Textures:                         ok. mse = 28.2729
110_Hydra_mat_Reflection-glossy_Textures:                               ok. mse = 15.5821
111_hydra_mat_colCorr:                                                  ok. mse = 7.75843
112_hydra_mat_composite:                                                ok. mse = 21.3388
113_hydra_mat_shadowsGI:                                                ok. mse = 12.3082
122_hydra_mat_Recursive_Blend_mix-rgb:                                  ok. mse = 6.40081
123_hydra_mat_Recursive_Blend_mix-alpha:                                ok. mse = 20.7341
124_hydra_mat_Blend_Transparency:                                       ok. mse = 26.2475
125_Emission_cast_GI:                                                   ok. mse = 0.702232
126_blend_and_opacity:                                                  ok. mse = 
127_Falloff:                                                            ok. mse = 6.41284
128_Falloff_Blend_simple:                                               ok. mse = 4.14601
129_BlendBox_simple:                                                    ok. mse = 5.08741
130_BlendBox_Blend_simple:                                              ok. mse = 1.58678
131_AO:                                                                 ok. mse = 7.34237
132_AO_Blend:                                                           ok. mse = 18.709
133_AO_Blend-Blend:                                                     ok. mse = 18.1581
134_FalloffInAllSlots:                                                  ok. mse = 8.45476
135_BlendBoxInAllSlots:                                                 FALSE! MSE = 1305.6
136_AOInAllSlots:                                                       FALSE! MSE = 1942.32
137_Falloff_BlendBox_AO_Blend:                                          ok. mse = 11.0455
140_Glass:                                                              ok. mse = 18.9326
141_UniformContrast:                                                    ok. mse = 3.48181
142_Denoise:                                                            ok. mse = 10.8222
300_photometric_lights_MMLT:                                            ok. mse = 
305_std_lights:                                                         ok. mse = 7.34576
307_ies_lights:                                                         FALSE! MSE = 14191.5
308_emiss_photometr_meshLight_hydraLight:                               ok. mse = 0.638084
309_meshLight_with_texture:                                             ok. mse = 16.1668
310_MeshLight:                                                          ok. mse = 21.5347
311_direct_light_caustic:                                               ok. mse = 21.9209
314_HydraLights:                                                        ok. mse = 0.501305
314_HydraLights_scale:                                                  ok. mse = 0.534068
314_PhotometricsLights:                                                 ok. mse = 0.501287
315_HydraSunSky:                                                        ok. mse = 16.5072
316_directional_light_brightness:                                       ok. mse = 2.50652
319_all_shape_light:                                                    ok. mse = 1.06975
320_Envir-EXR:                                                          ok. mse = 9.95479
322_Envir-JPG:                                                          ok. mse = 9.95479
323_Envir-PNG:                                                          ok. mse = 5.44312
324_BackEnvirNode:                                                      FALSE! MSE = 6041.07
325_liquid_light:                                                       ok. mse = 20.4307
326_CatcherAndBackEnvir:                                                FALSE! MSE = 7373.01
327_BlackBackEnvir_purpleOutline:                                       ok. mse = 
400_multimat_instances:                                                 ok. mse = 6.9653
